<?xml version="1.0" encoding="UTF-8"?>
<svg class="x1lliihq x1k90msu x2h7rmj x1qfuztq x1k841w8" width="40" height="40" fill="currentColor" version="1.1" viewBox="0 0 36 36" xmlns="http://www.w3.org/2000/svg">
 <path d="m18 0c-9.941 0-18 8.059-18 18 0 8.442 5.8102 15.526 13.651 17.471v-11.971h-3.716v-5.5002h3.716v-2.3695c0-6.127 2.7718-8.9648 8.7838-8.9648 1.138 0 3.1024 0.22348 3.9094 0.44648v4.9834c-0.425-0.043-1.1655-0.065039-2.0795-0.065039-2.952 0-4.0904 1.1164-4.0904 4.0254v1.9441h5.8834l-1.009 5.5002h-4.8674v12.37c8.913-1.079 15.819-8.6679 15.819-17.87 0-9.941-8.059-18-18-18z"/>
</svg>
